{
  "version": 1,
  "configurations": {
    ".env": {
      "file": ".env",
      "variables": [
        {
          "prompt": "Enter prefix if wanted",
          "function": "text_input",
          "comments": [
            "Prefix used for containers and volumes",
            "If used can allow mutiple instances of the same compose project"
          ],
          "defaults": [""],
          "outputs": ["PREFIX"],
          "options": [],
          "affixes": ["", "_"]
        },
        {
          "function": "bool_input",
          "compose_files": ["compose/core.yml"],
          "defaults": ["true"]
        },
        {
          "prompt": "Enter domain name",
          "function": "text_input",
          "outputs": ["__DOMAIN_NAME"]
        },
        {
          "prompt": "would you like to add custom.yml to your compose?",
          "function": "bool_input",
          "compose_files": ["compose/custom.yml"],
          "outputs": ["__CUSTOM_COMPOSE_FILE"],
          "defaults": ["false"]
        },
        {
          "prompt": "Compose project name",
          "function": "text_input",
          "comments": ["Compose project name"],
          "defaults": ["${PREFIX}ispy-agentdvr"],
          "outputs": ["COMPOSE_PROJECT_NAME"]
        },
        {
          "prompt": "Which GPU do you want to use?",
          "function": "select_input",
          "options": ["None", "Intel", "AMD", "NVIDIA"],
          "compose_files": [
            "",
            "compose/gpu_intel.yml",
            "compose/gpu_amd.yml",
            "compose/gpu_nvidia.yml"
          ]
        },
        {
          "prompt": "iSpy AgentDVR config volume",
          "function": "volume_input",
          "comments": ["Contains all relevant configuration files."],
          "defaults": ["${PWD}/config", ""],
          "outputs": [
            "ISPY_AGENTDVR_CONFIG_VOL_DIR",
            "ISPY_AGENTDVR_CONFIG_VOL_IP"
          ],
          "key": "ispy_agentdvr_config",
          "name": "${PREFIX}ispy_agentdvr_config"
        },
        {
          "prompt": "iSpy AgentDVR recordings volume",
          "function": "volume_input",
          "comments": ["Location of Survaillance Recordings on disk."],
          "defaults": ["${PWD}/recordings", ""],
          "outputs": [
            "ISPY_AGENTDVR_RECORDINGS_VOL_DIR",
            "ISPY_AGENTDVR_RECORDINGS_VOL_IP"
          ],
          "key": "ispy_agentdvr_recordings",
          "name": "${PREFIX}ispy_agentdvr_recordings"
        },
        {
          "prompt": "iSpy AgentDVR commands volume",
          "function": "volume_input",
          "comments": ["Location to store desired iSpy Agent DVR Commands."],
          "defaults": ["${PWD}/commands", ""],
          "outputs": [
            "ISPY_AGENTDVR_COMMANDS_VOL_DIR",
            "ISPY_AGENTDVR_COMMANDS_VOL_IP"
          ],
          "key": "ispy_agentdvr_commands",
          "name": "${PREFIX}ispy_agentdvr_commands"
        },
        {
          "prompt": "Enter the domain name of the iSpy AgentDVR instance",
          "function": "text_input",
          "comments": ["Domain name to access iSpy AgentDVR"],
          "outputs": ["ISPY_AGENTDVR_DOMAIN"],
          "defaults": ["ispy.${__DOMAIN_NAME}"]
        },
        {
          "prompt": "Enter the local IP address of the iSpy AgentDVR instance",
          "function": "text_input",
          "comments": ["Local server IP address"],
          "outputs": ["ISPY_AGENTDVR_IP"]
        },
        {
          "prompt": "User uid",
          "function": "id_input",
          "defaults": ["@uid"],
          "outputs": ["PUID"]
        },
        {
          "prompt": "User gid",
          "function": "id_input",
          "defaults": ["@gid"],
          "outputs": ["PGID"]
        },
        {
          "prompt": "Ispy AgentDVR timezone",
          "comments": ["Local timezone"],
          "function": "timezone_input",
          "outputs": ["TZ"]
        }
      ]
    }
  }
}
